{
	"id": "0e08844d-5635-b0ea-745a-e2eb8a510036",
	"name": "bizlist",
	"description": "adam global REST Calls",
	"order": [
		"e5f7db42-3b84-ffe7-37d8-dffd730c4835",
		"fe2e9232-7eaf-7808-feed-c75790672082",
		"269052a0-fc39-d5db-7164-0072bf8a63f6",
		"e2b4cd04-ec9a-f4a5-367d-c0279939de6a",
		"77299f84-171b-461c-f893-2310e8601f24",
		"cf3124a1-2f92-167a-02df-1528456eaa73"
	],
	"folders": [],
	"timestamp": 1478730975023,
	"owner": "220924",
	"public": false,
	"requests": [
		{
			"id": "269052a0-fc39-d5db-7164-0072bf8a63f6",
			"headers": "Content-Type: application/json\n",
			"url": "localhost:8080/web/user/api/editProfile",
			"preRequestScript": null,
			"pathVariables": {},
			"method": "POST",
			"data": [],
			"dataMode": "raw",
			"tests": null,
			"currentHelper": "normal",
			"helperAttributes": {},
			"time": 1478956951870,
			"name": "localhost:8080/spring4ajax/user/api/editProfile",
			"description": "",
			"collectionId": "0e08844d-5635-b0ea-745a-e2eb8a510036",
			"responses": [],
			"rawModeData": "{\"username\":\"guchi\",\"email\":\"ad\",\"password\":\"guchi\" , \"joiningDate\":\"2016-11-11\" , \"address\":\"kalkuta\" , \"name\":\"guchi\" , \"phone\":\"321321321\"}"
		},
		{
			"id": "77299f84-171b-461c-f893-2310e8601f24",
			"headers": "Content-Type: application/json\n",
			"url": "localhost:8080/web/user/api/search/username",
			"preRequestScript": null,
			"pathVariables": {},
			"method": "POST",
			"data": [],
			"dataMode": "raw",
			"tests": null,
			"currentHelper": "normal",
			"helperAttributes": {},
			"time": 1478956962935,
			"name": "localhost:8080/spring4ajax/user/api/search/username",
			"description": "search user by username",
			"collectionId": "0e08844d-5635-b0ea-745a-e2eb8a510036",
			"responses": [],
			"rawModeData": "{\"username\":\"guchi\"}"
		},
		{
			"id": "cf3124a1-2f92-167a-02df-1528456eaa73",
			"headers": "Content-Type: application/json\n",
			"url": "localhost:8080/web/user/api/login",
			"preRequestScript": null,
			"pathVariables": {},
			"method": "POST",
			"data": [],
			"dataMode": "raw",
			"tests": null,
			"currentHelper": "normal",
			"helperAttributes": {},
			"time": 1478956925530,
			"name": "localhost:8080/spring4ajax/user/api/login",
			"description": "Login",
			"collectionId": "0e08844d-5635-b0ea-745a-e2eb8a510036",
			"responses": [],
			"rawModeData": "{\"username\":\"guchi\" , \"password\" : \"guchi\"}"
		},
		{
			"id": "e2b4cd04-ec9a-f4a5-367d-c0279939de6a",
			"headers": "Content-Type: application/json\n",
			"url": "localhost:8080/web/user/api/search",
			"preRequestScript": null,
			"pathVariables": {},
			"method": "POST",
			"data": [],
			"dataMode": "raw",
			"tests": null,
			"currentHelper": "normal",
			"helperAttributes": {},
			"time": 1478956954366,
			"name": "localhost:8080/spring4ajax/user/api/search",
			"description": "search using \nusername , email , name , address",
			"collectionId": "0e08844d-5635-b0ea-745a-e2eb8a510036",
			"responses": [],
			"rawModeData": "{\"email\":\"ad\"}"
		},
		{
			"id": "e5f7db42-3b84-ffe7-37d8-dffd730c4835",
			"headers": "Content-Type: application/json\n",
			"url": "localhost:8080/web/user/api/register",
			"preRequestScript": null,
			"pathVariables": {},
			"method": "POST",
			"data": [],
			"dataMode": "raw",
			"version": 2,
			"tests": null,
			"currentHelper": "normal",
			"helperAttributes": {},
			"time": 1478956946416,
			"name": "localhost:8080/spring4ajax/user/api/register",
			"description": "register",
			"collectionId": "0e08844d-5635-b0ea-745a-e2eb8a510036",
			"responses": [],
			"rawModeData": "{\"username\":\"guchi\",\"email\":\"ad\",\"password\":\"guchi\" , \"joiningDate\":\"2016-11-11\" , \"address\":\"delhi\" , \"name\":\"guchi\" , \"phone\":\"7897897898\"}b\n"
		},
		{
			"id": "fe2e9232-7eaf-7808-feed-c75790672082",
			"headers": "Content-Type: application/json\n",
			"url": "localhost:8080/web/user/api/viewProfile",
			"preRequestScript": null,
			"pathVariables": {},
			"method": "POST",
			"data": [],
			"dataMode": "raw",
			"tests": null,
			"currentHelper": "normal",
			"helperAttributes": {},
			"time": 1478956949112,
			"name": "localhost:8080/spring4ajax/user/api/viewProfile",
			"description": "",
			"collectionId": "0e08844d-5635-b0ea-745a-e2eb8a510036",
			"responses": [],
			"rawModeData": "{\"username\":\"guchi\"}"
		}
	]
}